{
    "com.github.ulauncher.ulauncher-kill": {
        "id": "com.github.ulauncher.ulauncher-kill",
        "url": "https://github.com/Ulauncher/ulauncher-kill",
        "updated_at": "2023-04-02T19:44:35.532822",
        "last_commit": "00ffe8266dbb6c2aea7d86a6363e51cec4b1981f",
        "last_commit_time": "2022-11-26T16:15:05"
    },
    "com.github.seofernando25.ulauncher-gpt": {
        "id": "com.github.seofernando25.ulauncher-gpt",
        "url": "https://github.com/SeoFernando25/ulauncher-gpt",
        "updated_at": "2023-05-23T20:59:19.529520",
        "last_commit": "2d51ff40fcbd501e64034f3c7be1cd35abc47d6b",
        "last_commit_time": "2023-04-14T22:57:18"
    },
    "com.github.dhelmr.ulauncher-tldr": {
        "id": "com.github.dhelmr.ulauncher-tldr",
        "url": "https://github.com/dhelmr/ulauncher-tldr",
        "updated_at": "2023-05-23T21:00:03.455318",
        "last_commit": "9783c7798dac82007ab85fb2d9f4185e5be104bf",
        "last_commit_time": "2022-12-17T15:38:06"
    },
    "com.github.ulauncher.ulauncher-emoji": {
        "id": "com.github.ulauncher.ulauncher-emoji",
        "url": "https://github.com/Ulauncher/ulauncher-emoji",
        "updated_at": "2023-05-23T21:01:19.357661",
        "last_commit": "4c6af50d1c9a24d5aad2c597634ff0c634972a5c",
        "last_commit_time": "2021-08-08T19:19:59"
    },
    "com.github.troublor.ulauncher-numconverter": {
        "id": "com.github.troublor.ulauncher-numconverter",
        "url": "https://github.com/Troublor/ulauncher-numconverter",
        "updated_at": "2023-05-23T21:03:51.125772",
        "last_commit": "98d5e01d82671eedc98c000053980ae7ceb4ea28",
        "last_commit_time": "2021-09-29T13:19:39"
    }
}